{
  "meta" : {
    "feature_support_unaligned_memory" : true,
    "feature_flags" : ["M","A","F","D","Q","C","V","N"],
    "feature_deps" : {
      "D" : ["F"],
      "Q" : ["F","D"]
    },
    "feature_composite" : [
      {
        "name" : "G",
        "requirements" : ["M","A","F","D"]
      }
    ],
    "generated_isa_list" : [
      {
        "name" :  "RV32I", "base_size" :  32, "flags" :  [],
        "features" : ["M","A","F","D","C","V","N"],
        "required_features" : []
      },
      {
        "name" :  "RV32E", "base_size" :  32, "flags" :  ["embedded"],
        "features" : ["M","A","C"],
        "required_features" : []
      },
      {
        "name" :  "RV64I", "base_size" :  64, "flags" :  [],
        "features" : ["M","A","F","D","Q","C","V","N"],
        "required_features" : []
      }
    ],
    "generated_isa_alias" : [
      {
        "name" : "RV32G", "base_name" : "RV32I",
        "enabled_features" : ["G"]
      },
      {
        "name" : "RV64G", "base_name" : "RV64I",
        "enabled_features" : ["G"]
      }
    ]
  },
  "reg_banks" : [
    {
      "name" : "X",
      "type" : "STANDARD_REGISTER",
      "make_default_view" : true,
      "register_prefix" : "x",
      "special_case": [
        {
          "id" : 0,
          "case" : "ZERO_REGISTER"
        }
      ],
      "count" : [
        {
          "filter" : { "embedded" : false },
          "value" : 32
        },
        {
          "filter" : { "embedded" : true  },
          "value" : 16
        }
      ],
      "size" : [
        {
          "filter" : { "base_size" : 32 },
          "value" : 32
        },
        {
          "filter" : { "base_size" : 64 },
          "value" : 64
        }
      ]
    },
    {
      "name" : "PC",
      "type" : "PROGRAM_COUNTER",
      "register_prefix": "pc",
      "count" : 1,
      "size" : [
        {
          "filter" : { "base_size" :  32},
          "value" : 32
        },
        {
          "filter" : { "base_size" :  64},
          "value" : 64
        }
      ]
    }
  ],
  "layouts" : [
    {
      "name": "R-TYPE-INT",
      "layout" : [
        { "name" : "OP_CODE", "bits" : 7                   },
        { "name" : "rd",      "bits" : 5, "reg_bank" : "X" },
        { "name" : "FUNC3",   "bits" : 3                   },
        { "name" : "rs1",     "bits" : 5, "reg_bank" : "X" },
        { "name" : "rs2",     "bits" : 5, "reg_bank" : "X" },
        { "name" : "FUNC7",   "bits" : 7                   }
      ],
      "instructions" : [
        {
          "name" : "ADD",
          "type" : "INT-ADD-Undefined-SIZED",
          "args" : { "OP_CODE" : "0110011", "FUNC3" : "000", "FUNC7" : "0000000" }
        },
        {
          "name" : "SUB",
          "type" : "INT-SUB-Undefined-SIZED",
          "args" : { "OP_CODE" : "0110011", "FUNC3" : "000", "FUNC7" : "0100000" }
        },
        {
          "name" : "SLL",
          "type" : "INT-SHIFT-LEFT-Undefined-SIZED",
          "args" : { "OP_CODE" : "0110011", "FUNC3" : "001", "FUNC7" : "0000000" }
        },
        {
          "name" : "SLT",
          "type" : "INT-SET-LESS-THAN-SIGNED-Undefined-SIZED",
          "args" : { "OP_CODE" : "0110011", "FUNC3" : "010", "FUNC7" : "0000000" }
        },
        {
          "name" : "SLTU",
          "type" : "INT-SET-LESS-THEN-UNSIGNED-Undefined-SIZED",
          "args" : { "OP_CODE" : "0110011", "FUNC3" : "011", "FUNC7" : "0000000" }
        },
        {
          "name" : "XOR",
          "type" : "INT-XOR-Undefined-SIZED",
          "args" : { "OP_CODE" : "0110011", "FUNC3" : "100", "FUNC7" : "0000000" }
        },
        {
          "name" : "SRL",
          "type" : "INT-SHIFT-RIGHT-LOGICAL-Undefined-SIZED",
          "args" : { "OP_CODE" : "0110011", "FUNC3" : "101", "FUNC7" : "0000000" }
        },
        {
          "name" : "SRA",
          "type" : "INT-SHIFT-RIGHT-ARITHMETIC-Undefined-SIZED",
          "args" : { "OP_CODE" : "0110011", "FUNC3" : "101", "FUNC7" : "0100000" }
        },
        {
          "name" : "OR",
          "type" : "INT-OR-Undefined-SIZED",
          "args" : { "OP_CODE" : "0110011", "FUNC3" : "110", "FUNC7" : "0000000" }
        },
        {
          "name" : "AND",
          "type" : "INT-AND-Undefined-SIZED",
          "args" : { "OP_CODE" : "0110011", "FUNC3" : "111", "FUNC7" : "0000000" }
        },
        {
          "name" : "ADDW",
          "filter" : { "base_size" : {">=" : 64} },
          "type" : "INT-ADD-SignExtend-32",
          "args" : { "OP_CODE" : "0111011", "FUNC3" : "000", "FUNC7" : "0000000" }
        },
        {
          "name" : "SUBW",
          "filter" : { "base_size" : {">=" : 64} },
          "type" : "INT-SUB-SignExtend-32",
          "args" : { "OP_CODE" : "0111011", "FUNC3" : "000", "FUNC7" : "0100000" }
        },
        {
          "name" : "SLLW",
          "filter" : { "base_size" : {">=" : 64} },
          "type" : "INT-SHIFT-LEFT-SignExtend-32",
          "args" : { "OP_CODE" : "0111011", "FUNC3" : "001", "FUNC7" : "0000000" }
        },
        {
          "name" : "SRLW",
          "filter" : { "base_size" : {">=" : 64} },
          "type" : "INT-SHIFT-RIGHT-LOGICAL-SignExtend-32",
          "args" : { "OP_CODE" : "0111011", "FUNC3" : "101", "FUNC7" : "0000000" }
        },
        {
          "name" : "SRAW",
          "filter" : { "base_size" : {">=" : 64} },
          "type" : "INT-SHIFT-RIGHT-ARITHMETIC-SignExtend-32",
          "args" : { "OP_CODE" : "0111011", "FUNC3" : "101", "FUNC7" : "0100000" }
        },
        {
          "name" : "MUL",
          "filter" : { "flags" : ["M"] },
          "type" : "INT-MUL-LOWER-Undefined-SIZED",
          "args" : { "OP_CODE" : "0110011", "FUNC3" : "000", "FUNC7" : "0000001" }
        },
        {
          "name" : "MULH",
          "filter" : { "flags" : ["M"] },
          "type" : "INT-MUL-UPPER-SIGNED-SIGNED-Undefined-SIZED",
          "args" : { "OP_CODE" : "0110011", "FUNC3" : "001", "FUNC7" : "0000001" }
        },
        {
          "name" : "MULHSU",
          "filter" : { "flags" : ["M"] },
          "type" : "INT-MUL-UPPER-SIGNED-UNSIGNED-Undefined-SIZED",
          "args" : { "OP_CODE" : "0110011", "FUNC3" : "010", "FUNC7" : "0000001" }
        },
        {
          "name" : "MULHU",
          "filter" : { "flags" : ["M"] },
          "type" : "INT-MUL-UPPER-UNSIGNED-UNSIGNED-Undefined-SIZED",
          "args" : { "OP_CODE" : "0110011", "FUNC3" : "011", "FUNC7" : "0000001" }
        },
        {
          "name" : "DIV",
          "filter" : { "flags" : ["M"] },
          "type" : "INT-DIV-SIGNED-Undefined-SIZED",
          "args" : { "OP_CODE" : "0110011", "FUNC3" : "100", "FUNC7" : "0000001" }
        },
        {
          "name" : "DIVU",
          "filter" : { "flags" : ["M"] },
          "type" : "INT-DIV-UNSIGNED-Undefined-SIZED",
          "args" : { "OP_CODE" : "0110011", "FUNC3" : "101", "FUNC7" : "0000001" }
        },
        {
          "name" : "REM",
          "filter" : { "flags" : ["M"] },
          "type" : "INT-REM-SIGNED-Undefined-SIZED",
          "args" : { "OP_CODE" : "0110011", "FUNC3" : "110", "FUNC7" : "0000001" }
        },
        {
          "name" : "REMU",
          "filter" : { "flags" : ["M"] },
          "type" : "INT-REM-UNSIGNED-Undefined-SIZED",
          "args" : { "OP_CODE" : "0110011", "FUNC3" : "111", "FUNC7" : "0000001" }
        },
        {
          "name" : "MULW",
          "filter" : { "base_size" : {">=" : 64}, "flags" : ["M"] },
          "type" : "INT-MUL-LOWER-SignExtend-32",
          "args" : { "OP_CODE" : "0111011", "FUNC3" : "000", "FUNC7" : "0000001" }
        },
        {
          "name" : "DIVW",
          "filter" : { "base_size" : {">=" : 64}, "flags" : ["M"] },
          "type" : "INT-DIV-SIGNED-SignExtend-32",
          "args" : { "OP_CODE" : "0110011", "FUNC3" : "100", "FUNC7" : "0000001" }
        },
        {
          "name" : "DIVUW",
          "filter" : { "base_size" : {">=" : 64}, "flags" : ["M"] },
          "type" : "INT-DIV-UNSIGNED-SignExtend-32",
          "args" : { "OP_CODE" : "0110011", "FUNC3" : "101", "FUNC7" : "0000001" }
        },
        {
          "name" : "REMW",
          "filter" : { "base_size" : {">=" : 64}, "flags" : ["M"] },
          "type" : "INT-REM-SIGNED-SignExtend-32",
          "args" : { "OP_CODE" : "0110011", "FUNC3" : "110", "FUNC7" : "0000001" }
        },
        {
          "name" : "REMUW",
          "filter" : { "base_size" : {">=" : 64}, "flags" : ["M"] },
          "type" : "INT-REM-UNSIGNED-SignExtend-32",
          "args" : { "OP_CODE" : "0110011", "FUNC3" : "111", "FUNC7" : "0000001" }
        }
      ]
    },
    {
      "name" : "R-TYPE-INT-SHIFT-IMM-32",
      "filter" : { "base_size" : 32 },
      "layout" : [
        { "name" : "OP_CODE", "bits" : 7                        },
        { "name" : "rd",      "bits" : 5, "reg_bank" : "X"      },
        { "name" : "FUNC3",   "bits" : 3                        },
        { "name" : "rs1",     "bits" : 5, "reg_bank" : "X"      },
        { "name" : "imm1",    "bits" : 5, "imm_mode" : "U+ZEXT" },
        { "name" : "FUNC7",   "bits" : 7                        }
      ],
      "instructions" : [
        {
          "name" : "SLLI",
          "type" : "INT-SHIFT-LEFT-IMMEDIATE-Undefined-32",
          "args" : { "OP_CODE" : "0010011", "FUNC3" : "001", "FUNC7" : "0000000" }
        },
        {
          "name" : "SRLI",
          "type" : "INT-SHIFT-RIGHT-LOGICAL-IMMEDIATE-Undefined-32",
          "args" : { "OP_CODE" : "0010011", "FUNC3" : "101", "FUNC7" : "0000000" }
        },
        {
          "name" : "SRAI",
          "type" : "INT-SHIFT-RIGHT-ARITHMETIC-IMMEDIATE-Undefined-32",
          "args" : { "OP_CODE" : "0010011", "FUNC3" : "101", "FUNC7" : "0100000" }
        }
      ]
    },
    {
      "name" : "R-TYPE-INT-SHIFT-IMM-64",
      "filter" : { "base_size" : 64 },
      "layout" : [
        { "name" : "OP_CODE", "bits" : 7                        },
        { "name" : "rd",      "bits" : 5, "reg_bank" : "X"      },
        { "name" : "FUNC3",   "bits" : 3                        },
        { "name" : "rs1",     "bits" : 5, "reg_bank" : "X"      },
        { "name" : "imm1",    "bits" : 6, "imm_mode" : "U+ZEXT" },
        { "name" : "FUNC7",   "bits" : 6                        }
      ],
      "instructions" : [
        {
          "name" : "SLLI",
          "type" : "INT-SHIFT-LEFT-IMMEDIATE-Undefined-64",
          "args" : { "OP_CODE" : "0010011", "FUNC3" : "001", "FUNC7" : "000000" }
        },
        {
          "name" : "SRLI",
          "type" : "INT-SHIFT-RIGHT-LOGICAL-IMMEDIATE-Undefined-64",
          "args" : { "OP_CODE" : "0010011", "FUNC3" : "101", "FUNC7" : "000000" }
        },
        {
          "name" : "SRAI",
          "type" : "INT-SHIFT-RIGHT-ARITHMETIC-IMMEDIATE-Undefined-64",
          "args" : { "OP_CODE" : "0010011", "FUNC3" : "101", "FUNC7" : "010000" }
        }
      ]
    },
    {
      "name" : "I-TYPE-INT",
      "layout" : [
        { "name" : "OP_CODE", "bits" : 7                         },
        { "name" : "rd",      "bits" : 5,  "reg_bank" : "X"      },
        { "name" : "FUNC3",   "bits" : 3                         },
        { "name" : "rs1",     "bits" : 5,  "reg_bank" : "X"      },
        { "name" : "imm1",    "bits" : 12, "imm_mode" : "S+SEXT" }
      ],
      "instructions" : [
        {
          "name" : "ADDI",
          "type" : "INT-ADD-IMMEDIATE-Undefined-SIZED",
          "args" : { "OP_CODE" : "0010011", "FUNC3" : "000" },
          "sub_instructions" : [
            {
              "name" : "MOV",
              "type" : "INT-COPY-Undefined-SIZED",
              "args" : { "imm1" : "000000000000" }
            }
          ]
        },
        {
          "name" : "SLTI",
          "type" : "INT-SET-LESS-THAN-SIGNED-IMMEDIATE-Undefined-SIZED",
          "args" : { "OP_CODE" : "0010011", "FUNC3" : "010" }
        },
        {
          "name" : "SLTIU",
          "type" : "INT-SET-LESS-THAN-UNSIGNED-IMMEDIATE-Undefined-SIZED",
          "args" : { "OP_CODE" : "0010011", "FUNC3" : "011" },
          "sub_instructions" : [
            {
              "name" : "SEQZ",
              "type" : "INT-SET-EQUAL-ZERO",
              "args" : { "imm1" : "000000000000" }
            }
          ]
        },
        {
          "name" : "ANDI",
          "type" : "INT-AND-IMMEDIATE-Undefined-SIZED",
          "args" : { "OP_CODE" : "0010011", "FUNC3" : "100" }
        },
        {
          "name" : "ORI",
          "type" : "INT-OR-Undefined-SIZED",
          "args" : { "OP_CODE" : "0010011", "FUNC3" : "110" }
        },
        {
          "name" : "XORI",
          "type" : "INT-XOR-Undefined-SIZED",
          "args" : { "OP_CODE" : "0010011", "FUNC3" : "111" }
        },
        {
          "name" : "ADDIW",
          "filter" : { "base_size" : {">=" : 64} },
          "type" : "INT-ADD-IMMEDIATE-SignExtend-32",
          "args" : { "OP_CODE" : "0010011", "FUNC3" : "111" }
        },
        {
          "name" : "LB",
          "type" : "LOAD-OFFSET-IMMEDIATE-SignExtend-8",
          "args" : { "OP_CODE" : "0000011", "FUNC3" : "000" }
        },
        {
          "name" : "LH",
          "type" : "LOAD-OFFSET-IMMEDIATE-SignExtend-16",
          "args" : { "OP_CODE" : "0000011", "FUNC3" : "001" }
        },
        {
          "name" : "LW",
          "type" : "LOAD-OFFSET-IMMEDIATE-SignExtend-32",
          "args" : { "OP_CODE" : "0000011", "FUNC3" : "010" }
        },
        {
          "name" : "LBU",
          "type" : "LOAD-OFFSET-IMMEDIATE-ZeroExtend-8",
          "args" : { "OP_CODE" : "0000011", "FUNC3" : "100" }
        },
        {
          "name" : "LHU",
          "type" : "LOAD-OFFSET-IMMEDIATE-ZeroExtend-16",
          "args" : { "OP_CODE" : "0000011", "FUNC3" : "101" }
        },
        {
          "name" : "LD",
          "filter" : { "base_size" : {">=" : 64} },
          "type" : "LOAD-OFFSET-IMMEDIATE-SignExtend-64",
          "args" : { "OP_CODE" : "0000011", "FUNC3" : "011" }
        },
        {
          "name" : "LWU",
          "filter" : { "base_size" : {">=" : 64} },
          "type" : "LOAD-OFFSET-IMMEDIATE-ZeroExtend-32",
          "args" : { "OP_CODE" : "0000011", "FUNC3" : "110" }
        }
      ]
    },
    {
      "name" : "S-TYPE-INT",
      "layout" : [
        { "name" : "OP_CODE",    "bits" : 7                        },
        { "name" : "imm1(0:4)",  "bits" : 5, "imm_mode" : "S+SEXT" },
        { "name" : "FUNC3",      "bits" : 3                        },
        { "name" : "rs1",        "bits" : 5, "reg_bank" : "X"      },
        { "name" : "rs2",        "bits" : 5, "reg_bank" : "X"      },
        { "name" : "imm1(5:11)", "bits" : 7, "imm_mode" : "S+SEXT" }
      ],
      "instructions" : [
        {
          "name" : "SB",
          "type" : "STORE-OFFSET-IMMEDIATE-8",
          "args" : { "OP_CODE" : "0100011", "FUNC3" : "000" }
        },
        {
          "name" : "SH",
          "type" : "STORE-OFFSET-IMMEDIATE-16",
          "args" : { "OP_CODE" : "0100011", "FUNC3" : "001" }
        },
        {
          "name" : "SW",
          "type" : "STORE-OFFSET-IMMEDIATE-32",
          "args" : { "OP_CODE" : "0100011", "FUNC3" : "010" }
        },
        {
          "name" : "SD",
          "filter" : { "base_size" : {">=" : 64} },
          "type" : "STORE-OFFSET-IMMEDIATE-64",
          "args" : { "OP_CODE" : "0100011", "FUNC3" : "011" }
        }
      ]
    }
  ]
}